{
    "defaultSeverity": "warning",
    "extends": ["tslint:recommended"],
    "jsRules": {},
    "rules": {
        "object-literal-sort-keys": false,
        "no-console": false,
        "no-shadowed-variable": false,
        "only-arrow-functions": false,
        "interface-name": false,
        "semicolon": false
    },
    "rulesDirectory": [],
    "linterOptions": {"exclude": ["node_modules//**//**"]}
}
